<?xml version="1.0" encoding="UTF-8"?>
<svg width="94px" height="48px" viewBox="0 0 94 48" version="1.1" xmlns="http://www.w3.org/2000/svg" xmlns:xlink="http://www.w3.org/1999/xlink">
    <!-- Generator: Sketch 46.2 (44496) - http://www.bohemiancoding.com/sketch -->
    <title>Group</title>
    <desc>Created with Sketch.</desc>
    <defs></defs>
    <g id="Symbols" stroke="none" stroke-width="1" fill="none" fill-rule="evenodd">
        <g id="header" transform="translate(-68.000000, -16.000000)" fill="#FFFFFF">
            <g id="Group" transform="translate(68.000000, 16.000000)">
                <path d="M92.1295219,40.8187267 C92.2059553,40.7848864 92.2774969,40.7528271 92.3086817,40.7391722 L92.9764039,40.4482642 L93.3243288,41.074607 L93.6153871,41.6000226 L94,42.2928588 L93.2729655,42.6455106 C93.0216525,42.7678107 92.5752814,42.9791643 91.9589225,43.1608334 C91.3358374,43.3442836 90.5494906,43.4968619 89.6353472,43.4968619 C87.8364107,43.4968619 86.3297555,42.8396472 85.2633567,41.7217291 C84.1939006,40.6014362 83.5830449,39.0323137 83.5830449,37.2174036 C83.5830449,35.2926609 84.2550473,33.6849485 85.3721979,32.5397207 C86.5333741,31.3499661 88.1623227,30.6749406 90.0095651,30.6749406 C90.5715034,30.6749406 91.2740793,30.7616194 91.9234574,30.9349768 C92.5098544,31.0911173 93.0632323,31.3238437 93.459463,31.6361246 L93.9969427,32.0606129 L93.6355656,32.6311489 L93.3029274,33.1565645 L92.8938558,33.8007181 L92.2255222,33.4112575 C92.0011137,33.280052 91.7021063,33.1239116 91.3321686,33.0027988 C90.9665113,32.8834671 90.5207517,32.7950074 89.9887752,32.7950074 C88.7309872,32.7950074 87.7563085,33.2450243 87.0836946,33.9509216 C86.3132459,34.760121 85.9121234,35.9160353 85.9121234,37.1366618 C85.9121234,38.4184383 86.3163032,39.4882676 87.0035924,40.2297863 C87.6762063,40.955869 88.6349868,41.3767952 89.7600865,41.3767952 C90.8778485,41.3767952 91.6054945,41.0526405 92.1295219,40.8187267 L92.1295219,40.8187267 Z M80.6926395,30.9171661 L81.4202854,30.9171661 L82.210301,30.9171661 L82.210301,31.6848072 L82.210301,42.5077745 L82.210301,43.2748219 L81.4202854,43.2748219 L80.6926395,43.2748219 L79.9020124,43.2748219 L79.9020124,42.5077745 L79.9020124,31.6848072 L79.9020124,30.9171661 L80.6926395,30.9171661 Z M82.1791162,27.4915753 C82.4371554,27.7777338 82.5851304,28.1630386 82.5851304,28.5750594 C82.5851304,29.0120152 82.4328751,29.3901956 82.173613,29.6698236 C81.8905037,29.9749802 81.4979418,30.149525 81.0460675,30.149525 C80.5911359,30.149525 80.2101918,29.9571695 79.9387004,29.6561687 C79.6776039,29.366448 79.5277945,28.9763938 79.5277945,28.5750594 C79.5277945,28.1677881 79.6861645,27.7759527 79.9527642,27.4880131 C80.2285359,27.1899808 80.6149831,27 81.0668574,27 C81.521789,27 81.9051789,27.187606 82.1791162,27.4915753 L82.1791162,27.4915753 Z M74.2862977,40.2933111 C74.8971534,39.6717177 75.2646452,38.8358023 75.2646452,38.0450074 L75.2646452,35.8038279 C75.2646452,35.5900995 75.2609764,35.4125862 75.2475241,35.2801934 C75.2352948,35.1596743 75.2163393,35.0557786 75.1876003,34.9673188 L75.1863774,34.9679125 C74.9619689,34.3516623 74.5712414,33.7538166 74.0099145,33.3423895 C73.5549829,33.0087357 72.9765349,32.7950074 72.2696789,32.7950074 C71.2473057,32.7950074 70.4077613,33.2426496 69.8091349,33.9408289 C69.1193999,34.7458724 68.7341756,35.8816013 68.7341756,37.0755117 C68.7341756,38.3311659 69.1053361,39.3843718 69.7375932,40.1152041 C70.338054,40.8098213 71.1904393,41.2153115 72.1865193,41.2153115 C73.0150574,41.2153115 73.7457607,40.8436617 74.2862977,40.2933111 L74.2862977,40.2933111 Z M74.9417905,31.3469976 C75.1026064,31.4372385 75.2530273,31.53401 75.3936648,31.6355309 L75.416289,30.9171661 L76.1794001,30.9171661 L76.8660778,30.9171661 L77.7147942,30.9171661 L77.653036,31.7382393 C77.6206283,32.1668834 77.5998384,32.573561 77.5882205,32.9849881 C77.5772141,33.3554506 77.5729338,33.8304026 77.5729338,34.4104376 L77.5729338,40.9125297 C77.5729338,42.4424686 77.3968313,43.5770101 77.1014926,44.4485469 C76.786587,45.3770779 76.3359357,46.0147009 75.8137427,46.5092446 L75.8045707,46.5181499 C75.2505814,47.0233801 74.5993689,47.3801877 73.9218632,47.61707 C73.1501916,47.8866052 72.351004,48 71.6251924,48 C71.0351266,48 70.2579518,47.8782936 69.5248026,47.6740642 C68.8430167,47.4834898 68.1771289,47.2133609 67.7014075,46.8897998 L67.08566,46.4712484 L67.4849481,45.855592 L67.8389876,45.3105846 L68.2725178,44.6414961 L68.9469661,45.0826077 C69.3254643,45.3307701 69.7761157,45.5284688 70.2536715,45.6650175 C70.7410109,45.8045347 71.2558663,45.8799333 71.7499318,45.8799333 C72.8658594,45.8799333 73.7414804,45.5302499 74.326043,44.8777847 L74.3278774,44.8789721 C74.8616883,44.2823137 75.1802627,43.4155264 75.24997,42.3118568 C75.100772,42.4222832 74.942402,42.5267726 74.77486,42.6229504 C74.0270356,43.0539692 73.1006628,43.3353783 71.9994104,43.3353783 C70.3716847,43.3353783 68.9854886,42.6472916 67.9955232,41.5448095 C66.9921055,40.4268913 66.405097,38.8850786 66.405097,37.2174036 C66.405097,35.2261676 67.0208445,33.6938539 67.9551664,32.6127445 C69.0796545,31.3125636 70.6535711,30.6749406 72.1865193,30.6749406 C73.3226254,30.6749406 74.2318771,30.9492254 74.9417905,31.3469976 L74.9417905,31.3469976 Z M61.9456668,40.7605451 C62.58465,40.2297863 62.8488038,39.5304195 62.8488038,39.1558012 L62.8488038,37.3189246 C61.960342,37.3450469 60.9336886,37.4536922 60.0702969,37.7570677 C59.1206883,38.0913152 58.3771442,38.6838177 58.3771442,39.720994 C58.3771442,40.2790625 58.5477436,40.682178 58.8118974,40.9469637 C59.1151851,41.2515266 59.5615562,41.3969807 60.0201566,41.3969807 C60.8774336,41.3969807 61.5047989,41.1274454 61.9456668,40.7605451 L61.9456668,40.7605451 Z M64.4080452,32.4613536 C65.0244041,33.4355988 65.1778824,34.6312903 65.1778824,35.6625297 L65.1778824,39.943034 C65.1778824,40.3776151 65.1827741,40.7991349 65.203564,41.1790965 C65.2249653,41.5792435 65.2640992,41.9805779 65.3319721,42.3848807 L65.4811701,43.2748219 L64.5535744,43.2748219 L63.8675082,43.2748219 L63.1539259,43.2748219 L63.0836072,42.5825794 L63.0817728,42.5653624 C62.8989441,42.6953805 62.7014402,42.8176807 62.4892611,42.9287007 C61.8184816,43.2789777 61.0033958,43.5170474 60.0617363,43.5170474 C58.8210694,43.5170474 57.8818558,43.1210562 57.2196368,42.5243978 C56.4186148,41.8018772 56.0480657,40.7967601 56.0480657,39.8421068 L56.051123,39.8391383 L56.0517345,39.7833314 L56.0517345,39.7773945 C56.0719129,38.3240416 56.7304631,37.1396302 58.0567354,36.3209318 C59.1708286,35.6322515 60.7637007,35.2237928 62.8518612,35.1638301 C62.8237337,34.7227185 62.7515805,34.2400486 62.566306,33.8363395 C62.3076554,33.272334 61.7689528,32.8151928 60.664643,32.8151928 C60.2720811,32.8151928 59.8660668,32.8793113 59.4747278,33.0027988 C59.0846118,33.1262863 58.7110053,33.3055807 58.3795901,33.5365261 L57.6501097,34.0453183 L57.22514,33.2788646 L56.9340817,32.7540427 L56.6026664,32.1556033 L57.1780571,31.7649553 C57.7240973,31.3938991 58.3013223,31.1350503 58.8565345,30.965255 C59.5340402,30.7580572 60.1901445,30.6749406 60.7270127,30.6749406 C62.6262298,30.6749406 63.7513294,31.4241773 64.4080452,32.4613536 L64.4080452,32.4613536 Z M53.7544522,32.2796845 C54.3818176,33.0966018 54.8416409,34.3148536 54.8416409,36.1267952 L54.8416409,42.5077745 L54.8416409,43.2748219 L54.0516253,43.2748219 L53.3233679,43.2748219 L52.5333523,43.2748219 L52.5333523,42.5077745 L52.5333523,36.207537 C52.5333523,35.058747 52.3175043,34.155151 51.8821397,33.5703664 C51.5201511,33.0841343 50.9692192,32.8151928 50.2250636,32.8151928 C49.5695708,32.8151928 48.9513774,33.1405349 48.4829936,33.6202363 C47.9699726,34.1456519 47.645895,34.8426439 47.645895,35.501046 L47.645895,42.5077745 L47.645895,43.2748219 L46.8558794,43.2748219 L46.1276219,43.2748219 L45.3376063,43.2748219 L45.3376063,42.5077745 L45.3376063,35.6827151 C45.3376063,34.7909929 45.1211469,34.0180086 44.7022919,33.4985299 C44.3586473,33.0728542 43.8535754,32.8151928 43.1956367,32.8151928 C42.4851119,32.8151928 41.8455172,33.1696257 41.3630696,33.6819801 C40.795628,34.2851691 40.450149,35.0884315 40.450149,35.8038279 L40.450149,42.5077745 L40.450149,43.2748219 L39.6601334,43.2748219 L38.931876,43.2748219 L38.1418604,43.2748219 L38.1418604,42.5077745 L38.1418604,34.1278412 C38.1418604,33.6178616 38.1375801,33.2165272 38.1265737,32.8923725 C38.1149558,32.5373459 38.0941659,32.1686645 38.0617582,31.7382393 L38,30.9171661 L38.8487165,30.9171661 L39.556184,30.9171661 L40.3199065,30.9171661 L40.3425308,31.6438426 C40.4428114,31.5648818 40.5461494,31.4906706 40.6537676,31.4200215 C41.3795792,30.9450695 42.2582575,30.6749406 43.3411659,30.6749406 C44.2816025,30.6749406 45.1205355,30.9890026 45.7986526,31.510856 C46.1153926,31.7548626 46.3954446,32.0439896 46.6326938,32.3669569 C46.8100193,32.1544159 47.0154723,31.9448434 47.2539445,31.7489257 C47.9895395,31.143362 49.0198618,30.6749406 50.4537523,30.6749406 C51.1520479,30.6749406 52.6831617,30.8845132 53.7544522,32.2796845 L53.7544522,32.2796845 Z" id="Fill-1"></path>
                <path d="M57.0907476,9.72823111 L57.0796956,7.61415992 L53.4178125,7.61353427 L53.4184265,21.8320551 L57.0803096,21.8320551 L57.0803096,12.091311 C57.0796956,11.7021567 57.0606617,11.7134184 57.1902152,11.39246 C57.4057285,10.8550267 57.5150201,10.3276038 58.5268885,10.3050804 C59.6535746,10.2800544 59.9489075,11.0308343 59.9476795,12.1282243 C59.9464515,12.9102868 59.9139097,21.4723064 59.9568895,21.8257986 L63.7814821,21.8333064 C63.8263039,21.4059875 63.7894641,13.0942279 63.7894641,12.2383387 C63.7894641,11.9455345 63.7501682,11.7478292 63.8686698,11.4944409 C64.1259349,10.9413664 64.2561024,10.4539851 65.1758712,10.3939227 C66.3283451,10.318219 66.6095562,11.0715016 66.6077142,12.1651377 L66.6077142,20.227263 C66.6077142,20.724029 66.5764003,21.3377916 66.6138541,21.8201677 L70.5059865,21.8333064 C70.5477383,21.4954554 70.5164244,13.7467808 70.5164244,13.0116421 C70.5164244,12.1150857 70.5821222,10.9182173 70.4937065,10.057323 C70.3125772,8.30300052 69.0532676,7.26629855 67.3095137,7.36765384 C65.9402985,7.44711139 65.3471766,8.06775614 64.4372318,8.87171633 C64.2622424,9.02625187 63.807884,9.51738708 63.6592965,9.59309072 C63.513779,9.35659504 63.5377249,8.68902654 62.6112022,7.8581634 C61.4998661,6.86212868 59.5940168,7.51217898 58.4605768,8.30550312 C57.7864071,8.77724318 57.5665959,9.2070647 57.0907476,9.72823111 L57.0907476,9.72823111 Z M78.4701525,0 L76.1787126,0 C76.049773,0.143273839 72.8232143,2.04212145 72.3940299,2.28800188 C72.2282504,2.38247502 71.1328783,2.96120123 71.1070904,3.05254612 L71.1070904,5.8742274 L74.0100722,5.47318579 L74.0137562,18.5323772 L71.3612855,18.5386337 L71.3594435,21.8207934 L81.2098109,21.8333064 L81.2171789,18.552398 L78.4726085,18.5355055 L78.4701525,0 Z M26.2754238,9.31905604 L26.2735818,7.32948919 L22.4373232,7.32510964 L22.4373232,21.8295525 L26.2729678,21.8333064 L26.2735818,12.00372 C26.2729678,11.292356 26.3061236,11.1597182 26.6843463,10.7705639 C27.4985075,9.9334443 28.768255,10.130524 29.051308,10.4940267 C29.2348934,10.7305223 29.2367354,11.6008014 29.2361214,11.9668066 L29.2367354,21.8251729 L33.1307097,21.8333064 L33.1313237,12.9960008 C33.1313237,12.0675363 33.1822855,10.9745258 33.1110618,10.0654564 C32.9772102,8.34116517 31.8855221,7.18558971 30.0601065,7.2831911 C27.9454979,7.39643374 26.6407525,9.15638706 26.2754238,9.31905604 L26.2754238,9.31905604 Z M35.7893204,7.54095888 L33.6569058,7.54283583 L33.6501519,10.2963213 L35.6333649,10.2963213 C35.6806427,11.7321879 35.5326693,18.305892 35.7156406,19.3626147 C35.9446618,20.6846131 36.6593553,21.3928488 37.881825,21.7088021 C38.75186,21.934036 41.1937294,21.8476963 41.9378948,21.5004606 L41.9053529,18.9765887 C41.1961854,18.9865991 39.869336,19.1286216 39.5040073,18.6255991 C39.1718345,18.1676233 39.2406022,16.6904638 39.2406022,16.0253979 C39.2406022,14.1459454 39.1816584,12.1670146 39.2442862,10.3000752 L41.8550051,10.2963213 L41.8537771,7.54283583 L39.2430582,7.54221018 L39.2406022,2.62460155 L35.7942323,2.620222 L35.7893204,7.54095888 Z M15.6004572,7.41332629 C14.6076227,7.54095888 13.967837,7.79372146 13.2850714,8.27484627 C12.6458996,8.72531424 12.2646069,9.24773195 11.8182305,10.0147788 C10.9862634,11.4462659 10.6172507,13.3976681 10.7136484,15.3565781 C10.815572,17.4230999 11.3417682,18.9040133 12.3094288,20.1978574 C12.4850322,20.4318505 12.8730788,20.7953531 13.1383259,20.9705351 C13.4674287,21.1876356 13.7756556,21.3571868 14.1974722,21.5085941 C15.0202293,21.8051521 16.1002515,21.8914918 17.0353702,21.796393 C20.9182926,21.4003566 22.0216467,17.2848312 21.8693752,13.8863007 C21.7870995,12.0443872 21.2670433,10.0560717 20.3429766,8.96431252 C19.1905026,7.60227257 17.4185048,7.17933321 15.6004572,7.41332629 L15.6004572,7.41332629 Z M16.1113034,10.0416817 C15.3112642,10.2112329 15.0675071,11.0614912 14.9269016,11.9342728 C14.6948104,13.3713908 14.6696365,16.3207047 14.9410235,17.7415557 C15.094523,18.5461415 15.5267775,19.4602161 16.52084,19.1767967 C17.9256671,18.7757551 17.9140011,16.0523008 17.9152291,14.400585 C17.9152291,13.4983977 17.9023352,11.0408447 17.3036873,10.3695223 C17.083876,10.1230162 16.5797838,9.9422034 16.1113034,10.0416817 L16.1113034,10.0416817 Z M90.7531794,9.1820387 C90.595996,9.14199711 90.1354976,8.83480298 89.9697181,8.73282204 C88.1080767,7.59288782 84.5143473,8.29799532 83.0769783,9.61749107 C81.2214769,11.3211359 81.5567197,14.9011049 84.3712858,16.2287341 C84.3295339,16.447086 84.3295339,16.5033944 84.1054247,16.5709646 C83.6136125,16.7192437 83.2372318,16.9288364 82.8461152,17.2329023 C81.6930272,18.1282074 81.2128809,19.4689752 82.2167674,20.70088 C82.3972827,20.9229857 82.6422679,21.1307015 82.898919,21.2902422 C83.0235605,21.3671972 83.166008,21.4529112 83.3158235,21.5254866 C83.4306411,21.5805438 83.6547503,21.6543705 83.748078,21.7281972 L83.74992,21.8752249 C83.4306411,22.0522839 81.2816486,22.2381019 81.188935,24.1857502 C81.1164832,25.7004488 82.4138607,26.2697902 83.6559783,26.6101438 C84.9189719,26.9555026 86.6829877,27.0524783 88.0515889,26.9748977 C89.4766779,26.8935632 90.8348411,26.5288093 91.7902218,25.8305839 C92.6786766,25.1811593 93.424684,24.2026428 93.435736,22.572199 C93.4467879,21.001192 92.6246448,20.0239267 91.6281263,19.4802369 C90.5425781,18.8871208 88.9259218,18.7407187 87.5474967,18.7206979 C86.9727947,18.7119388 85.8639146,18.6706459 85.461746,18.3866008 C84.8563441,17.9580306 85.0755413,17.0796181 85.5661256,16.7167411 C86.7701754,16.7949473 87.5849505,17.01893 88.7791763,16.6729456 C90.2257553,16.2531345 92.1684444,14.8560581 92.3403638,13.1818189 C92.4011496,12.5862001 92.3317679,11.3392797 92.0579248,10.7874565 C91.9756491,10.6210336 91.8037297,10.3419937 91.7619779,10.1724426 C91.9553872,9.79267306 92.3692217,9.76827271 92.8800679,9.79892956 C93.7599268,9.8508585 93.6168653,10.0147788 93.998158,10.2174894 L94,7.35201259 C92.6277148,7.38642334 91.5667265,8.64397974 90.7531794,9.1820387 L90.7531794,9.1820387 Z M86.5736961,22.0798125 C85.9584702,22.1436288 85.1228192,22.1617726 84.6653908,22.4608333 C84.1625265,22.7886739 84.0477089,23.4856479 84.3952317,24.0956566 C84.6752147,24.5867918 85.157817,24.7632251 85.8418106,24.9334019 C86.60501,25.1223482 87.0790163,25.1874158 87.8944054,25.0503985 C88.4267416,24.9603049 89.2580946,24.7982615 89.6633332,24.5442476 C90.1103237,24.2639565 90.5106502,23.7115076 90.1373396,23.0164105 C89.8776185,22.5315317 89.3090565,22.3638576 88.6508508,22.2205837 C87.8858095,22.0547865 87.3798752,21.9953497 86.5736961,22.0798125 L86.5736961,22.0798125 Z M86.7689474,10.0917337 C85.6576113,10.2706696 85.2732486,11.4900614 85.3794703,12.7770233 C85.4770959,13.9519939 86.1015317,15.122585 87.4068911,14.8385399 C88.4838434,14.6039212 88.8995199,13.4183145 88.7932983,12.1232191 C88.6926026,10.9006991 88.1136027,9.8746332 86.7689474,10.0917337 L86.7689474,10.0917337 Z M52.8670564,18.1526077 L50.5258826,17.2729439 C50.418433,18.0218469 50.0015285,18.6281017 49.552696,18.9015107 C49.0314119,19.2187152 48.0717332,19.3131884 47.4350175,19.0773184 C46.7952317,18.840197 46.5091087,18.36658 46.3304354,17.6032871 C46.1922858,17.0158018 45.9436167,15.9259195 46.0093145,15.3002696 L52.8811784,15.2114273 C53.0303798,13.7261343 52.5195336,11.3361515 52.0400013,10.1023698 C51.4591593,8.6083177 50.6867501,7.58913392 48.981678,7.25378555 C47.0451288,6.87276473 45.4757504,7.44523444 44.4558999,8.43814091 C43.6141089,9.25774235 42.8582775,10.9250995 42.5451386,12.4929783 C42.1976159,14.2316595 42.2602436,16.1943234 42.8109997,17.7815973 C43.284392,19.1461398 44.0825892,20.4944155 45.3197949,21.1951434 C46.6276103,21.935913 48.7477449,22.073556 50.1605539,21.387218 C51.0889186,20.9361244 51.9786015,20.0858661 52.4384859,19.2043253 C52.5483915,18.9941069 52.8179366,18.3953599 52.8670564,18.1526077 L52.8670564,18.1526077 Z M46.1229041,13.0585658 L49.4483164,13.0623197 C49.4556844,12.5155017 49.3838466,11.2160267 49.268415,10.7298967 C49.1044776,10.0435587 48.5874914,9.71258986 47.8046442,9.66879437 C46.9468892,9.62061932 46.5017407,9.98161934 46.3433293,10.7280197 C46.2088638,11.3630544 46.1026422,12.3909973 46.1229041,13.0585658 L46.1229041,13.0585658 Z M46.2358797,5.37433309 L47.3429178,6.16265203 C47.7426304,6.44607146 47.6671087,6.37099347 48.6808191,5.98496745 C49.0958816,5.82667801 51.2485581,5.08152891 51.4339854,4.93512683 C51.0870767,4.65421 50.6855221,4.36265712 50.3195793,4.08799679 C50.0617003,3.89467095 49.3906006,3.3541094 49.1646494,3.22647681 L46.2358797,5.37433309 Z M6.99220745,12.4710805 C6.99220745,11.8541897 6.91054574,11.3323976 6.75336229,10.8975709 C6.66249061,10.6448083 6.50223717,10.3976766 6.26339201,10.1605552 C6.02761684,9.92280825 5.74947582,9.80268346 5.43142493,9.80268346 C4.85426696,9.80268346 4.46130834,10.2500232 4.25868905,11.1415744 C4.05238577,12.0331255 3.9590581,13.2700355 3.97072406,14.8554325 C3.98607401,16.7899421 4.1586074,17.9617845 4.47911428,18.3722109 C4.79962115,18.7826372 5.22020967,19.0078712 5.73412587,19.0510411 C6.08840263,19.0729388 6.49609719,18.9365471 6.95905157,18.6431173 C7.42507593,18.3478105 7.65778112,17.6839959 7.66392109,16.6535504 L10.2163101,16.7524031 C10.0628107,18.3628261 9.62932819,19.6122491 8.91954669,20.500672 C8.2036252,21.3890949 7.01676737,21.8333064 5.35283321,21.8333064 C3.63241125,21.8333064 2.31108789,21.1088037 1.38824913,19.6554189 C0.462954375,18.2026597 0,16.6535504 0,15.009968 C0,13.2206091 0.44146445,11.5088309 1.32193736,9.8708793 C2.20179627,8.23543033 3.58083543,7.39956199 5.45905484,7.36264864 C7.29490839,7.34700739 8.53825403,7.9332414 9.18417976,9.12698151 C9.83256148,10.3175934 10.1567523,11.3668083 10.1567523,12.2702469 L6.99220745,12.4710805 Z" id="Fill-4"></path>
            </g>
        </g>
    </g>
</svg>